R tidyverse dplyr vs. R data.table vs. Python pandas
…
Load data in python

import pandas as pd  
iris_pd = r['iris_pd']

View data

dplyr

iris_df

# A tibble: 150 x 5
   Sepal.Length Sepal.Width Petal.Length Petal.Width Species
          <dbl>       <dbl>        <dbl>       <dbl> <fct>  
 1          5.1         3.5          1.4         0.2 setosa 
 2          4.9         3            1.4         0.2 setosa 
 3          4.7         3.2          1.3         0.2 setosa 
 4          4.6         3.1          1.5         0.2 setosa 
 5          5           3.6          1.4         0.2 setosa 
 6          5.4         3.9          1.7         0.4 setosa 
 7          4.6         3.4          1.4         0.3 setosa 
 8          5           3.4          1.5         0.2 setosa 
 9          4.4         2.9          1.4         0.2 setosa 
10          4.9         3.1          1.5         0.1 setosa 
# … with 140 more rows
…
[150 rows x 5 columns]

Rename selected columns

rename(iris_df, sepal_length = Sepal.Length, sepal_width = Sepal.Width)

# A tibble: 150 x 5
   sepal_length sepal_width Petal.Length Petal.Width Species
          <dbl>       <dbl>        <dbl>       <dbl> <fct>  
 1          5.1         3.5          1.4         0.2 setosa 
 2          4.9         3            1.4         0.2 setosa 
 3          4.7         3.2          1.3         0.2 setosa 
 4          4.6         3.1          1.5         0.2 setosa 
 5          5           3.6          1.4         0.2 setosa 
 6          5.4         3.9          1.7         0.4 setosa 
 7          4.6         3.4          1.4         0.3 setosa 
 8          5           3.4          1.5         0.2 setosa 
 9          4.4         2.9          1.4         0.2 setosa 
10          4.9         3.1          1.5         0.1 setosa 
# … with 140 more rows
…
Rename all columns

iris_df <- rename(iris_df, sepal_length = Sepal.Length, sepal_width = Sepal.Width, petal_length = Petal.Length, petal_width = Petal.Width)

new_names <- tolower(gsub(".", "_", names(iris_dt), fixed = TRUE))
setnames(iris_dt, new_names) # inplace operation

new_names = iris_pd.columns.str.replace(".", "_").str.lower()
iris_pd.columns = new_names

Select columns using index

select(iris_df, 1, 3)

# A tibble: 150 x 2
   sepal_length petal_length
          <dbl>        <dbl>
 1          5.1          1.4
 2          4.9          1.4
 3          4.7          1.3
 4          4.6          1.5
 5          5            1.4
 6          5.4          1.7
 7          4.6          1.4
 8          5            1.5
 9          4.4          1.4
10          4.9          1.5
# … with 140 more rows
…
   sepal_length sepal_width petal_length petal_width   species
1:          5.9           3          5.1         1.8 virginica

iris_pd.tail(1)

     sepal_length  sepal_width  petal_length  petal_width    species
149           5.9          3.0           5.1          1.8  virginica

Score: dplyr: 0, data.table: 0, pandas: 0

Select columns using names

select(iris_df, sepal_length, petal_length)

# A tibble: 150 x 2
   sepal_length petal_length
          <dbl>        <dbl>
 1          5.1          1.4
 2          4.9          1.4
 3          4.7          1.3
 4          4.6          1.5
 5          5            1.4
 6          5.4          1.7
 7          4.6          1.4
 8          5            1.5
 9          4.4          1.4
10          4.9          1.5
# … with 140 more rows
…
[150 rows x 2 columns]

Select columns with matching names

select(iris_df, starts_with("petal"))

# A tibble: 150 x 2
   petal_length petal_width
          <dbl>       <dbl>
 1          1.4         0.2
 2          1.4         0.2
 3          1.3         0.2
 4          1.5         0.2
 5          1.4         0.2
 6          1.7         0.4
 7          1.4         0.3
 8          1.5         0.2
 9          1.4         0.2
10          1.5         0.1
# … with 140 more rows
…
[150 rows x 2 columns]

Select multiple columns flexibly

# dplyr
select(iris_df, ends_with("h"), -1, 5) # ends with h, drop col 1, select col 5

# A tibble: 150 x 4
   sepal_width petal_length petal_width Species
         <dbl>        <dbl>       <dbl> <fct>  
 1         3.5          1.4         0.2 setosa 
 2         3            1.4         0.2 setosa 
 3         3.2          1.3         0.2 setosa 
 4         3.1          1.5         0.2 setosa 
 5         3.6          1.4         0.2 setosa 
 6         3.9          1.7         0.4 setosa 
 7         3.4          1.4         0.3 setosa 
 8         3.4          1.5         0.2 setosa 
 9         2.9          1.4         0.2 setosa 
10         3.1          1.5         0.1 setosa 
# … with 140 more rows
…
