rtutorials: tidyverse and data.table
…
Manipulating datasets with dplyr (a package in tidyverse)

Read in data from a csv file (stored in “./data/simpsonsParadox.csv”).

fread(): a function from data.table (fast-read, hence fread) that is EXTREMELY fast and powerful, and much better than read.csv() or read.table() from base R

tbl_dt(): converts data to a tibble class and data.table class

df4 <- tbl_dt(fread("./data/simpsonsParadox.csv"))
df4 # print table in console 

Source: local data table [40 x 3]

# A tibble: 40 x 3
      iq grades class
   <dbl>  <dbl> <chr>
 1  94.5   67.9 a    
 2  95.4   82.5 a    
 3  97.8   69.1 a    
 4  98.1   83.3 a    
 5  96.6   99.1 a    
 6 102.    89.9 a    
 7 101.    73.7 a    
 8  97.1   47.9 a    
 9  94.2   55.6 a    
10  94.4   44.5 a    
# ... with 30 more rows
…
Tibbles are automatically truncated to facilitate printing.

Select columns/variables with select()

Select with names

select(df4, iq) # just prints the output to console without saving

Source: local data table [40 x 1]

# A tibble: 40 x 1
      iq
   <dbl>
 1  94.5
 2  95.4
 3  97.8
 4  98.1
 5  96.6
 6 102. 
 7 101. 
 8  97.1
 9  94.2
10  94.4
# ... with 30 more rows

df4_iq <- select(df4, iq) # if you want to save as a new object
df4_iq # print df4_iq

Source: local data table [40 x 1]

# A tibble: 40 x 1
      iq
   <dbl>
 1  94.5
 2  95.4
 3  97.8
 4  98.1
 5  96.6
 6 102. 
 7 101. 
 8  97.1
 9  94.2
10  94.4
# ... with 30 more rows

select(df4, class, grades)

Source: local data table [40 x 2]

# A tibble: 40 x 2
   class grades
   <chr>  <dbl>
 1 a       67.9
 2 a       82.5
 3 a       69.1
 4 a       83.3
 5 a       99.1
 6 a       89.9
 7 a       73.7
 8 a       47.9
 9 a       55.6
10 a       44.5
# ... with 30 more rows

select(df4, iq, grades)

Source: local data table [40 x 2]

# A tibble: 40 x 2
      iq grades
   <dbl>  <dbl>
 1  94.5   67.9
 2  95.4   82.5
 3  97.8   69.1
 4  98.1   83.3
 5  96.6   99.1
 6 102.    89.9
 7 101.    73.7
 8  97.1   47.9
 9  94.2   55.6
10  94.4   44.5
# ... with 30 more rows

Select multiple columns in sequence with :

select(df4, iq:class)

Source: local data table [40 x 3]

# A tibble: 40 x 3
      iq grades class
   <dbl>  <dbl> <chr>
 1  94.5   67.9 a    
 2  95.4   82.5 a    
 3  97.8   69.1 a    
 4  98.1   83.3 a    
 5  96.6   99.1 a    
 6 102.    89.9 a    
 7 101.    73.7 a    
 8  97.1   47.9 a    
 9  94.2   55.6 a    
10  94.4   44.5 a    
# ... with 30 more rows

Select with numbers

select(df4, 1, 3)

Source: local data table [40 x 2]

# A tibble: 40 x 2
      iq class
   <dbl> <chr>
 1  94.5 a    
 2  95.4 a    
 3  97.8 a    
 4  98.1 a    
 5  96.6 a    
 6 102.  a    
 7 101.  a    
 8  97.1 a    
 9  94.2 a    
10  94.4 a    
# ... with 30 more rows

select(df4, 1:3) # what does 1:3 do?

Source: local data table [40 x 3]

# A tibble: 40 x 3
      iq grades class
   <dbl>  <dbl> <chr>
 1  94.5   67.9 a    
 2  95.4   82.5 a    
 3  97.8   69.1 a    
 4  98.1   83.3 a    
 5  96.6   99.1 a    
 6 102.    89.9 a    
 7 101.    73.7 a    
 8  97.1   47.9 a    
 9  94.2   55.6 a    
10  94.4   44.5 a    
# ... with 30 more rows

How can we reorder columns with select()?

select(df4, 3:1) # column 3, then 2, then 1

Source: local data table [40 x 3]

# A tibble: 40 x 3
   class grades    iq
   <chr>  <dbl> <dbl>
 1 a       67.9  94.5
 2 a       82.5  95.4
 3 a       69.1  97.8
 4 a       83.3  98.1
 5 a       99.1  96.6
 6 a       89.9 102. 
 7 a       73.7 101. 
 8 a       47.9  97.1
 9 a       55.6  94.2
10 a       44.5  94.4
# ... with 30 more rows

Select with starts_with() or ends_with()

select(df4, starts_with("c"))

Source: local data table [40 x 1]

# A tibble: 40 x 1
   class
   <chr>
 1 a    
 2 a    
 3 a    
 4 a    
 5 a    
 6 a    
 7 a    
 8 a    
 9 a    
10 a    
# ... with 30 more rows

select(df4, starts_with("g"))

Source: local data table [40 x 1]

# A tibble: 40 x 1
   grades
    <dbl>
 1   67.9
 2   82.5
 3   69.1
 4   83.3
 5   99.1
 6   89.9
 7   73.7
 8   47.9
 9   55.6
10   44.5
# ... with 30 more rows

select(df4, starts_with("g"), ends_with("s"))

Source: local data table [40 x 2]

# A tibble: 40 x 2
   grades class
    <dbl> <chr>
 1   67.9 a    
 2   82.5 a    
 3   69.1 a    
 4   83.3 a    
 5   99.1 a    
 6   89.9 a    
 7   73.7 a    
 8   47.9 a    
 9   55.6 a    
10   44.5 a    
# ... with 30 more rows

Dropping columns with -

select(df4, -grades) # what should you get?

Source: local data table [40 x 2]

# A tibble: 40 x 2
      iq class
   <dbl> <chr>
 1  94.5 a    
 2  95.4 a    
 3  97.8 a    
 4  98.1 a    
 5  96.6 a    
 6 102.  a    
 7 101.  a    
 8  97.1 a    
 9  94.2 a    
10  94.4 a    
# ... with 30 more rows

select(df4, -ends_with("s")) # what should you get?

Source: local data table [40 x 1]

# A tibble: 40 x 1
      iq
   <dbl>
 1  94.5
 2  95.4
 3  97.8
 4  98.1
 5  96.6
 6 102. 
 7 101. 
 8  97.1
 9  94.2
10  94.4
# ... with 30 more rows

select(df4, -ends_with("s"), class, -1) # what should you get?

Source: local data table [40 x 1]

# A tibble: 40 x 1
   class
   <chr>
 1 a    
 2 a    
 3 a    
 4 a    
 5 a    
 6 a    
 7 a    
 8 a    
 9 a    
10 a    
# ... with 30 more rows

Renaming while selecting columns/variables

select(df4, intelligence = iq) # select iq and rename it to intelligence

Source: local data table [40 x 1]

# A tibble: 40 x 1
   intelligence
          <dbl>
 1         94.5
 2         95.4
 3         97.8
 4         98.1
 5         96.6
 6        102. 
 7        101. 
 8         97.1
 9         94.2
10         94.4
# ... with 30 more rows
…
Source: local data table [2 x 3]

# A tibble: 2 x 3
     iq grades class
  <dbl>  <dbl> <chr>
1  122.   18.3 d    
2  124.   29.5 d    

Filter through negating !

filter(df4, class != "a") # class IS NOT "a" (! and =, without space in between)

Source: local data table [30 x 3]

# A tibble: 30 x 3
      iq grades class
   <dbl>  <dbl> <chr>
 1  104.   74.1 b    
 2  103.   59.9 b    
 3  102.   47.9 b    
 4  105.   44.9 b    
 5  106.   60.2 b    
 6  109.   64.9 b    
 7  107.   74.5 b    
 8  107.   49.9 b    
 9  102.   37.9 b    
10  100.   54.9 b    
# ... with 20 more rows
…
Operators

==, %in%, %between%, >, >=, <, <=, != are operators. See here for more information.

Rename variables/columns with rename()

df4_renamed <- rename(df4, intelligence = iq, examGrades = grades, classroom = class) # rename(data, newname = oldname)
df4_renamed

Source: local data table [40 x 3]

# A tibble: 40 x 3
   intelligence examGrades classroom
          <dbl>      <dbl> <chr>    
 1         94.5       67.9 a        
 2         95.4       82.5 a        
 3         97.8       69.1 a        
 4         98.1       83.3 a        
 5         96.6       99.1 a        
 6        102.        89.9 a        
 7        101.        73.7 a        
 8         97.1       47.9 a        
 9         94.2       55.6 a        
10         94.4       44.5 a        
# ... with 30 more rows
…
names(df4_renamed)

[1] "intelligence" "examGrades"   "classroom"   

Create new columns/variables with mutate()

mutate(df4, 
       iqMeanCentered = iq - mean(iq, na.rm = T), # substract mean iq from each iq
       gradesRound0dp = round(grades) # round grades
       )

Source: local data table [40 x 5]

# A tibble: 40 x 5
      iq grades class iqMeanCentered gradesRound0dp
   <dbl>  <dbl> <chr>          <dbl>          <dbl>
 1  94.5   67.9 a             -14.9              68
 2  95.4   82.5 a             -14.0              83
 3  97.8   69.1 a             -11.6              69
 4  98.1   83.3 a             -11.3              83
 5  96.6   99.1 a             -12.8              99
 6 102.    89.9 a              -7.82             90
 7 101.    73.7 a              -8.54             74
 8  97.1   47.9 a             -12.3              48
 9  94.2   55.6 a             -15.2              56
10  94.4   44.5 a             -15.0              44
# ... with 30 more rows

mutate(df4, studentNumber = 1:nrow(df4))

Source: local data table [40 x 4]

# A tibble: 40 x 4
      iq grades class studentNumber
   <dbl>  <dbl> <chr>         <int>
 1  94.5   67.9 a                 1
 2  95.4   82.5 a                 2
 3  97.8   69.1 a                 3
 4  98.1   83.3 a                 4
 5  96.6   99.1 a                 5
 6 102.    89.9 a                 6
 7 101.    73.7 a                 7
 8  97.1   47.9 a                 8
 9  94.2   55.6 a                 9
10  94.4   44.5 a                10
# ... with 30 more rows
…
Sorting or arranging data rows with arrange()

arrange(df4, iq) # ascending order of iq

Source: local data table [40 x 3]

# A tibble: 40 x 3
      iq grades class
   <dbl>  <dbl> <chr>
 1  94.2   55.6 a    
 2  94.4   44.5 a    
 3  94.5   67.9 a    
 4  95.4   82.5 a    
 5  96.6   99.1 a    
 6  97.1   47.9 a    
 7  97.8   69.1 a    
 8  98.1   83.3 a    
 9 100.    54.9 b    
10 101.    73.7 a    
# ... with 30 more rows

arrange(df4, iq, grades) # ascending order of iq then grades

Source: local data table [40 x 3]

# A tibble: 40 x 3
      iq grades class
   <dbl>  <dbl> <chr>
 1  94.2   55.6 a    
 2  94.4   44.5 a    
 3  94.5   67.9 a    
 4  95.4   82.5 a    
 5  96.6   99.1 a    
 6  97.1   47.9 a    
 7  97.8   69.1 a    
 8  98.1   83.3 a    
 9 100.    54.9 b    
10 101.    73.7 a    
# ... with 30 more rows

arrange(df4, desc(iq)) # descending order of iq

Source: local data table [40 x 3]

# A tibble: 40 x 3
      iq grades class
   <dbl>  <dbl> <chr>
 1  128.   51.8 d    
 2  125.   38.3 d    
 3  125.   48.7 d    
 4  124.   63.7 d    
 5  124.   29.5 d    
 6  122.   18.3 d    
 7  121.   53.7 d    
 8  121.   35.2 d    
 9  119.   51.0 c    
10  118    55.3 c    
# ... with 30 more rows

arrange(df4, desc(class)) # descending order of class

Source: local data table [40 x 3]

# A tibble: 40 x 3
      iq grades class
   <dbl>  <dbl> <chr>
 1  117.   17.5 d    
 2  121.   35.2 d    
 3  118.   29.9 d    
 4  122.   18.3 d    
 5  124.   29.5 d    
 6  121.   53.7 d    
 7  124.   63.7 d    
 8  125.   48.7 d    
 9  125.   38.3 d    
10  128.   51.8 d    
# ... with 30 more rows
…
official dplyr documentation

tidyverse

Supercharging your workflow with data.table()

While the syntax of tidyverse and dplyr functions are really easy to understand, they sometimes can be quite long-winded. Using pipes %>% makes your code readable, but is a bit long to read sometimes. Now we’ll see how data.table() can shorten all that code while maintaining readability. Also, data.table() is MUCH faster, which is especially useful when dealing with bigger datasets (hundreds of MBs and GBs and even TBs).

If you use tbl_dt(fread('filename')) to read your dataset into R, then your object is already a data.table. Check it with class(objectName).

df4

Source: local data table [40 x 4]

# A tibble: 40 x 4
      iq grades class gender
   <dbl>  <dbl> <chr> <chr> 
 1  94.5   67.9 a     male  
 2  95.4   82.5 a     male  
 3  97.8   69.1 a     male  
 4  98.1   83.3 a     male  
 5  96.6   99.1 a     female
 6 102.    89.9 a     male  
 7 101.    73.7 a     female
 8  97.1   47.9 a     female
 9  94.2   55.6 a     male  
10  94.4   44.5 a     male  
# ... with 30 more rows
…
class(df4) # is it a data.table?

[1] "tbl_dt"     "tbl"        "data.table" "data.frame"

Different ways to filter via i

df4[i = gender == 'female',] # just female (j, by are NULL)

Source: local data table [22 x 4]

# A tibble: 22 x 4
      iq grades class gender
   <dbl>  <dbl> <chr> <chr> 
 1  96.6   99.1 a     female
 2 101.    73.7 a     female
 3  97.1   47.9 a     female
 4 104.    74.1 b     female
 5 103.    59.9 b     female
 6 102.    47.9 b     female
 7 105.    44.9 b     female
 8 106.    60.2 b     female
 9 107.    49.9 b     female
10 102.    37.9 b     female
# ... with 12 more rows
…
# A tibble: 5 x 4
     iq grades class gender
  <dbl>  <dbl> <chr> <chr> 
1  121.   35.2 d     female
2  122.   18.3 d     male  
3  124.   29.5 d     male  
4  125.   48.7 d     female
5  125.   38.3 d     female

df4[grades < 50 | iq > 120] # smart but OR lazy people (grades < 50 OR iq > 120)

Source: local data table [21 x 4]

# A tibble: 21 x 4
      iq grades class gender
   <dbl>  <dbl> <chr> <chr> 
 1  97.1   47.9 a     female
 2  94.4   44.5 a     male  
 3 102.    47.9 b     female
 4 105.    44.9 b     female
 5 107.    49.9 b     female
 6 102.    37.9 b     female
 7 112.    46.4 c     male  
 8 109.    43.7 c     male  
 9 111.    36.4 c     female
10 114.    30.2 c     female
# ... with 11 more rows
…
class(df4$grades) # not a data.table!

[1] "numeric"

How to select columns and keep them as data.table?

df4[, .(grades)] # output looks like a table (tibble + local data table)

Source: local data table [40 x 1]

# A tibble: 40 x 1
   grades
    <dbl>
 1   67.9
 2   82.5
 3   69.1
 4   83.3
 5   99.1
 6   89.9
 7   73.7
 8   47.9
 9   55.6
10   44.5
# ... with 30 more rows

class(df4[, .(grades)]) # still a data.table!

[1] "tbl_dt"     "tbl"        "data.table" "data.frame"

df4[, j = .(grades, gender, iq)] # select multiple columns

Source: local data table [40 x 3]

# A tibble: 40 x 3
   grades gender    iq
    <dbl> <chr>  <dbl>
 1   67.9 male    94.5
 2   82.5 male    95.4
 3   69.1 male    97.8
 4   83.3 male    98.1
 5   99.1 female  96.6
 6   89.9 male   102. 
 7   73.7 female 101. 
 8   47.9 female  97.1
 9   55.6 male    94.2
10   44.5 male    94.4
# ... with 30 more rows

df4[, .(grades,gender, iq)] # same as above and we often omit j =

Source: local data table [40 x 3]

# A tibble: 40 x 3
   grades gender    iq
    <dbl> <chr>  <dbl>
 1   67.9 male    94.5
 2   82.5 male    95.4
 3   69.1 male    97.8
 4   83.3 male    98.1
 5   99.1 female  96.6
 6   89.9 male   102. 
 7   73.7 female 101. 
 8   47.9 female  97.1
 9   55.6 male    94.2
10   44.5 male    94.4
# ... with 30 more rows

# select(df4, grades, gender, iq) # same as above but with select()
df4[, grades:gender] # select grades to gender

Source: local data table [40 x 3]

# A tibble: 40 x 3
   grades class gender
    <dbl> <chr> <chr> 
 1   67.9 a     male  
 2   82.5 a     male  
 3   69.1 a     male  
 4   83.3 a     male  
 5   99.1 a     female
 6   89.9 a     male  
 7   73.7 a     female
 8   47.9 a     female
 9   55.6 a     male  
10   44.5 a     male  
# ... with 30 more rows

# select(df4, grades:gender) # same as above but with select()
# df4[, .(grades:gender)] # this version doesn't work at the moment

df4[, c(2, 3, 4)] # via column index/number

Source: local data table [40 x 3]

# A tibble: 40 x 3
   grades class gender
    <dbl> <chr> <chr> 
 1   67.9 a     male  
 2   82.5 a     male  
 3   69.1 a     male  
 4   83.3 a     male  
 5   99.1 a     female
 6   89.9 a     male  
 7   73.7 a     female
 8   47.9 a     female
 9   55.6 a     male  
10   44.5 a     male  
# ... with 30 more rows

df4[, -c(2, 3, 4)] # via column index/number (minus/not columns 1, 3, 4)

Source: local data table [40 x 1]

# A tibble: 40 x 1
      iq
   <dbl>
 1  94.5
 2  95.4
 3  97.8
 4  98.1
 5  96.6
 6 102. 
 7 101. 
 8  97.1
 9  94.2
10  94.4
# ... with 30 more rows

df4[, 1:3] # via column index/number (1 to 3)

Source: local data table [40 x 3]

# A tibble: 40 x 3
      iq grades class
   <dbl>  <dbl> <chr>
 1  94.5   67.9 a    
 2  95.4   82.5 a    
 3  97.8   69.1 a    
 4  98.1   83.3 a    
 5  96.6   99.1 a    
 6 102.    89.9 a    
 7 101.    73.7 a    
 8  97.1   47.9 a    
 9  94.2   55.6 a    
10  94.4   44.5 a    
# ... with 30 more rows

Other ways to select columns

df4[, "grades"] # 1 column (character)

Source: local data table [40 x 1]

# A tibble: 40 x 1
   grades
    <dbl>
 1   67.9
 2   82.5
 3   69.1
 4   83.3
 5   99.1
 6   89.9
 7   73.7
 8   47.9
 9   55.6
10   44.5
# ... with 30 more rows

df4[, c("grades", "iq")] # multiple columns (characters)

Source: local data table [40 x 2]

# A tibble: 40 x 2
   grades    iq
    <dbl> <dbl>
 1   67.9  94.5
 2   82.5  95.4
 3   69.1  97.8
 4   83.3  98.1
 5   99.1  96.6
 6   89.9 102. 
 7   73.7 101. 
 8   47.9  97.1
 9   55.6  94.2
10   44.5  94.4
# ... with 30 more rows

Column names are stored in an object

colNames <- c("gender", "class")
df4[, colNames] # doesn't work!

Error in `[.data.table`(df4, , colNames): j (the 2nd argument inside [...]) is a single symbol but column name 'colNames' is not found. Perhaps you intended DT[, ..colNames]. This difference to data.frame is deliberate and explained in FAQ 1.1.

df4[, ..colNames] # works! (special syntax)

Source: local data table [40 x 2]

# A tibble: 40 x 2
   gender class
   <chr>  <chr>
 1 male   a    
 2 male   a    
 3 male   a    
 4 male   a    
 5 female a    
 6 male   a    
 7 female a    
 8 female a    
 9 male   a    
10 male   a    
# ... with 30 more rows
…
